03_multi-cycle_RISC-V_core/test_run_dir/MultiCycleRV32I_Tester_should_work/MultiCycleRV32I.vcd
$date
2024-04-07T16:59+0000
$end
$version
0.2
$end
$comment

$end
$timescale 1ns  $end
$scope module MultiCycleRV32I $end
 $var wire 1 : core $end
 $var wire 1 C clock $end
 $var wire 32 P io_result $end
 $var wire 1 Z reset $end
  $scope module core $end
   $var wire 1 ! reset $end
   $var wire 1 " isOR $end
   $var wire 1 # isXOR $end
   $var wire 1 $ isSLT $end
   $var wire 1 % isADDI $end
   $var wire 32 & operandB $end
   $var wire 32 ' IMem $end
   $var wire 32 ) aluResult $end
   $var wire 32 , instr $end
   $var wire 5 - rs2 $end
   $var wire 7 / funct7 $end
   $var wire 1 2 isSRA $end
   $var wire 1 3 isSLTU $end
   $var wire 5 7 rs1 $end
   $var wire 1 9 printf $end
   $var wire 32 = regFile $end
   $var wire 32 > operandA $end
   $var wire 1 @ clock $end
   $var wire 7 B opcode $end
   $var wire 12 D imm $end
   $var wire 1 E isADD $end
   $var wire 32 G io_check_res $end
   $var wire 32 M writeBackData $end
   $var wire 3 O funct3 $end
   $var wire 1 R isSRL $end
   $var wire 3 W stage $end
   $var wire 1 Y isSUB $end
   $var wire 1 [ assert $end
   $var wire 1 ] isAND $end
   $var wire 1 ^ isSLL $end
   $var wire 32 _ pc $end
   $var wire 5 a rd $end
    $scope module regFile $end
     $var wire 32 K MPORT $end
     $var wire 32 S MPORT_1 $end
      $scope module MPORT $end
       $var wire 5 ( pipeline_addr_0 $end
       $var wire 1 . mask $end
       $var wire 1 4 pipeline_valid_0 $end
       $var wire 1 6 en $end
       $var wire 5 < addr $end
       $var wire 1 ? clk $end
       $var wire 32 A pipeline_data_0 $end
       $var wire 1 J valid $end
       $var wire 32 T data $end
      $upscope $end
      $scope module operandB_MPORT $end
       $var wire 5 * addr $end
       $var wire 32 8 data $end
       $var wire 1 ; en $end
       $var wire 1 ` clk $end
      $upscope $end
      $scope module MPORT_1 $end
       $var wire 1 + en $end
       $var wire 1 0 valid $end
       $var wire 1 5 mask $end
       $var wire 5 I addr $end
       $var wire 5 L pipeline_addr_0 $end
       $var wire 32 \ pipeline_data_0 $end
       $var wire 32 b data $end
       $var wire 1 c pipeline_valid_0 $end
       $var wire 1 d clk $end
      $upscope $end
      $scope module operandA_MPORT $end
       $var wire 5 F addr $end
       $var wire 1 Q en $end
       $var wire 1 U clk $end
       $var wire 32 X data $end
      $upscope $end
    $upscope $end
    $scope module IMem $end
      $scope module instr_MPORT $end
       $var wire 12 1 addr $end
       $var wire 1 H en $end
       $var wire 32 N data $end
       $var wire 1 V clk $end
      $upscope $end
    $upscope $end
  $upscope $end
$upscope $end
$enddefinitions $end
$dumpvars
0C
0;
0Z
b00000000000000000000000000000000 S
0R
b00000000000000000000000000000000 >
b00000 -
15
b00000 a
b00000 L
0"
b00000000000000000000000000000000 8
0V
09
b00000 F
03
b00000000000000000000000000000000 K
0J
b00000000000000000000000000000000 b
b00000000000000000000000000000000 M
b00000 <
0c
b00000000000000000000000000000000 \
b00000000000000000000000000000000 G
0[
b000000000000 1
0]
0H
b00000000000000000000000000000000 A
b00000000000000000000000000000000 ,
0+
0@
b00000000000000000000000000010011 '
b00000000000000000000000000000000 X
b00000000000000000000000000000000 &
0%
0Y
b00000000000000000000000000000000 =
b00000 I
b0000000 /
b000000000000 D
b00000000000000000000000000000000 T
0!
16
0U
1.
b00000000000000000000000000000000 N
0#
b00000 (
0d
b00000000000000000000000000000000 P
0:
b0000000 B
02
b00000 *
0Q
04
0`
b000 W
b000 O
0E
00
b00000000000000000000000000000000 )
0?
b00000 7
0^
b00000000000000000000000000000000 _
0$
$end
#0
1!
b00000000000000000000000000010011 N
1J
1Z
1H
#1
1?
1`
14
1C
1@
1d
1U
1V
#6
0!
0?
0`
0C
0@
0d
0U
0V
0Z
#11
b0010011 B
1?
1`
1Q
1C
1@
1d
1U
1V
0H
b001 W
b00000000000000000000000000010011 ,
1;
#16
0?
0`
0C
0@
0d
0U
0V
#21
b0000000 B
1?
1`
0Q
1%
1C
1@
1d
1U
1V
b010 W
0;
#26
0?
0`
0C
0@
0d
0U
0V
#31
1?
1`
1C
1@
1d
1U
1V
b011 W
#36
0?
0`
0C
0@
0d
0U
0V
#41
10
1?
1`
1C
1@
1d
1U
1V
b100 W
1+
#46
0?
0`
0C
0@
0d
0U
0V
#51
1`
1C
00
1c
1?
b00000000010000000000000010010011 N
1U
1@
1d
b000000000001 1
1V
1H
b000 W
0+
b00000000000000000000000000000100 _
#56
0?
0`
0C
0@
0d
0U
0V
#61
b0010011 B
b00100 -
1`
1Q
1C
0c
1?
1U
1@
1d
1V
b00100 *
0H
b001 W
b00000000010000000000000010010011 ,
1;
#66
0?
0`
0C
0@
0d
0U
0V
#71
b0000000 B
b00000 -
1`
0Q
1C
b000000000100 D
b00001 a
1?
1U
1@
1d
1V
b00000 *
b010 W
b00001 I
0;
#76
0?
0`
0C
0@
0d
0U
0V
#81
1?
1`
1C
1@
1d
1U
1V
b011 W
b00001 L
b00000000000000000000000000000100 )
#86
0?
0`
0C
0@
0d
0U
0V
#91
1`
1C
b00000000000000000000000000000100 b
b00000000000000000000000000000100 M
10
1?
1U
1@
1d
b00000000000000000000000000000100 G
1V
b100 W
1+
b00000000000000000000000000000100 P
#96
0?
0`
0C
0@
0d
0U
0V
#101
1`
1C
b00000000000000000000000000000000 b
b00000000000000000000000000000000 M
b00000000000000000000000000000100 \
00
1c
1?
b00000000010100000000000100010011 N
1U
1@
1d
b000000000010 1
b00000000000000000000000000000000 G
1V
1H
b000 W
0+
b00000000000000000000000000000000 P
b00000000000000000000000000001000 _
#106
0?
0`
0C
0@
0d
0U
0V
#111
b0010011 B
b00101 -
1`
1Q
1C
b00000000000000000000000000000000 \
0c
1?
1U
1@
1d
1V
b00101 *
0H
b001 W
b00000000010100000000000100010011 ,
1;
#116
0?
0`
0C
0@
0d
0U
0V
#121
b0000000 B
b00000 -
1`
0Q
1C
b000000000101 D
b00010 a
1?
1U
1@
1d
1V
b00000 *
b010 W
b00010 I
0;
#126
0?
0`
0C
0@
0d
0U
0V
#131
1?
1`
1C
1@
1d
1U
1V
b011 W
b00010 L
b00000000000000000000000000000101 )
#136
0?
0`
0C
0@
0d
0U
0V
#141
1`
1C
b00000000000000000000000000000101 b
b00000000000000000000000000000101 M
10
1?
1U
1@
1d
b00000000000000000000000000000101 G
1V
b100 W
1+
b00000000000000000000000000000101 P
#146
0?
0`
0C
0@
0d
0U
0V
#151
1`
1C
b00000000000000000000000000000000 b
b00000000000000000000000000000000 M
b00000000000000000000000000000101 \
00
1c
1?
b00000000001000001000000110110011 N
1U
1@
1d
b000000000011 1
b00000000000000000000000000000000 G
1V
1H
b000 W
0+
b00000000000000000000000000000000 P
b00000000000000000000000000001100 _
#156
0?
0`
0C
0@
0d
0U
0V
#161
b0110011 B
b00010 -
1`
1Q
b00000000000000000000000000000100 X
1C
b00001 7
b00000000000000000000000000000000 \
0c
1?
b00001 F
1U
1@
1d
b00000000000000000000000000000101 8
1V
b00010 *
0H
b001 W
b00000000001000001000000110110011 ,
1;
#166
0?
0`
0C
0@
0d
0U
0V
#171
b0000000 B
b00000 -
1`
0Q
0%
b00000000000000000000000000000000 X
1C
b00000000000000000000000000000101 &
b000000000010 D
1E
b00011 a
b00000 7
b00000000000000000000000000000100 >
1?
b00000 F
1U
1@
1d
b00000000000000000000000000000000 8
1V
b00000 *
b010 W
b00011 I
0;
#176
0?
0`
0C
0@
0d
0U
0V
#181
1?
1`
1C
1@
1d
1U
1V
b011 W
b00011 L
b00000000000000000000000000001001 )
#186
0?
0`
0C
0@
0d
0U
0V
#191
1`
1C
b00000000000000000000000000001001 b
b00000000000000000000000000001001 M
10
1?
1U
1@
1d
b00000000000000000000000000001001 G
1V
b100 W
1+
b00000000000000000000000000001001 P
#196
0?
0`
0C
0@
0d
0U
0V
#201
1`
1C
b00000000000000000000000000000000 b
b00000000000000000000000000000000 M
b00000000000000000000000000001001 \
00
1c
1?
b01111111111100000000001000010011 N
1U
1@
1d
b000000000100 1
b00000000000000000000000000000000 G
1V
1H
b000 W
0+
b00000000000000000000000000000000 P
b00000000000000000000000000010000 _
#206
0?
0`
0C
0@
0d
0U
0V
#211
b0010011 B
b11111 -
1`
1Q
1C
b0111111 /
b00000000000000000000000000000000 \
0c
1?
1U
1@
1d
1V
b11111 *
0H
b001 W
b01111111111100000000001000010011 ,
1;
#216
0?
0`
0C
0@
0d
0U
0V
#221
b0000000 B
b00000 -
1`
0Q
1%
1C
b00000000000000000000000000000000 &
b011111111111 D
0E
b00100 a
b0000000 /
b00000000000000000000000000000000 >
1?
1U
1@
1d
1V
b00000 *
b010 W
b00100 I
0;
#226
0?
0`
0C
0@
0d
0U
0V
#231
1?
1`
1C
1@
1d
1U
1V
b011 W
b00100 L
b00000000000000000000011111111111 )
#236
0?
0`
0C
0@
0d
0U
0V
#241
1`
1C
b00000000000000000000011111111111 b
b00000000000000000000011111111111 M
10
1?
1U
1@
1d
b00000000000000000000011111111111 G
1V
b100 W
1+
b00000000000000000000011111111111 P
#246
0?
0`
0C
0@
0d
0U
0V
#251
1`
1C
b00000000000000000000000000000000 b
b00000000000000000000000000000000 M
b00000000000000000000011111111111 \
00
1c
1?
b00000001000000000000001010010011 N
1U
1@
1d
b000000000101 1
b00000000000000000000000000000000 G
1V
1H
b000 W
0+
b00000000000000000000000000000000 P
b00000000000000000000000000010100 _
#256
0?
0`
0C
0@
0d
0U
0V
#261
b0010011 B
b10000 -
1`
1Q
1C
b00000000000000000000000000000000 \
0c
1?
1U
1@
1d
1V
b10000 *
0H
b001 W
b00000001000000000000001010010011 ,
1;
#266
0?
0`
0C
0@
0d
0U
0V
#271
b0000000 B
b00000 -
1`
0Q
1C
b000000010000 D
b00101 a
1?
1U
1@
1d
1V
b00000 *
b010 W
b00101 I
0;
#276
0?
0`
0C
0@
0d
0U
0V
#281
1?
1`
1C
1@
1d
1U
1V
b011 W
b00101 L
b00000000000000000000000000010000 )
#286
0?
0`
0C
0@
0d
0U
0V
#291
1`
1C
b00000000000000000000000000010000 b
b00000000000000000000000000010000 M
10
1?
1U
1@
1d
b00000000000000000000000000010000 G
1V
b100 W
1+
b00000000000000000000000000010000 P
#296
0?
0`
0C
0@
0d
0U
0V
#301
1`
1C
b00000000000000000000000000000000 b
b00000000000000000000000000000000 M
b00000000000000000000000000010000 \
00
1c
1?
b01000000010100100000001100110011 N
1U
1@
1d
b000000000110 1
b00000000000000000000000000000000 G
1V
1H
b000 W
0+
b00000000000000000000000000000000 P
b00000000000000000000000000011000 _
#306
0?
0`
0C
0@
0d
0U
0V
#311
b0110011 B
b00101 -
1`
1Q
b00000000000000000000011111111111 X
1C
b00100 7
b0100000 /
b00000000000000000000000000000000 \
0c
1?
b00100 F
1U
1@
1d
b00000000000000000000000000010000 8
1V
b00101 *
0H
b001 W
b01000000010100100000001100110011 ,
1;
#316
0?
0`
0C
0@
0d
0U
0V
#321
b0000000 B
b00000 -
1`
0Q
0%
b00000000000000000000000000000000 X
1C
b00000000000000000000000000010000 &
1Y
b010000000101 D
b00110 a
b00000 7
b0000000 /
b00000000000000000000011111111111 >
1?
b00000 F
1U
1@
1d
b00000000000000000000000000000000 8
1V
b00000 *
b010 W
b00110 I
0;
#326
0?
0`
0C
0@
0d
0U
0V
#331
1?
1`
1C
1@
1d
1U
1V
b011 W
b00110 L
b00000000000000000000011111101111 )
#336
0?
0`
0C
0@
0d
0U
0V
#341
1`
1C
b00000000000000000000011111101111 b
b00000000000000000000011111101111 M
10
1?
1U
1@
1d
b00000000000000000000011111101111 G
1V
b100 W
1+
b00000000000000000000011111101111 P
#346
0?
0`
0C
0@
0d
0U
0V
#351
1`
1C
b00000000000000000000000000000000 b
b00000000000000000000000000000000 M
b00000000000000000000011111101111 \
00
1c
1?
b00000000001100110100001110110011 N
1U
1@
1d
b000000000111 1
b00000000000000000000000000000000 G
1V
1H
b000 W
0+
b00000000000000000000000000000000 P
b00000000000000000000000000011100 _
#356
0?
0`
0C
0@
0d
0U
0V
#361
b0110011 B
b00011 -
1`
1Q
b00000000000000000000011111101111 X
1C
b00110 7
b00000000000000000000000000000000 \
0c
1?
b00110 F
1U
1@
1d
b00000000000000000000000000001001 8
1V
b00011 *
0H
b001 W
b100 O
b00000000001100110100001110110011 ,
1;
#366
0?
0`
0C
0@
0d
0U
0V
#371
b0000000 B
b00000 -
1`
0Q
b00000000000000000000000000000000 X
1C
b00000000000000000000000000001001 &
0Y
b000000000011 D
b00111 a
b00000 7
b00000000000000000000011111101111 >
1?
b00000 F
1U
1@
1d
b00000000000000000000000000000000 8
1#
1V
b00000 *
b010 W
b000 O
b00111 I
0;
#376
0?
0`
0C
0@
0d
0U
0V
#381
1?
1`
1C
1@
1d
1U
1V
b011 W
b00111 L
b00000000000000000000011111100110 )
#386
0?
0`
0C
0@
0d
0U
0V
#391
1`
1C
b00000000000000000000011111100110 b
b00000000000000000000011111100110 M
10
1?
1U
1@
1d
b00000000000000000000011111100110 G
1V
b100 W
1+
b00000000000000000000011111100110 P
#396
0?
0`
0C
0@
0d
0U
0V
#401
1`
1C
b00000000000000000000000000000000 b
b00000000000000000000000000000000 M
b00000000000000000000011111100110 \
00
1c
1?
b00000000010100110110010000110011 N
1U
1@
1d
b000000001000 1
b00000000000000000000000000000000 G
1V
1H
b000 W
0+
b00000000000000000000000000000000 P
b00000000000000000000000000100000 _
#406
0?
0`
0C
0@
0d
0U
0V
#411
b0110011 B
b00101 -
1`
1Q
b00000000000000000000011111101111 X
1C
b00110 7
b00000000000000000000000000000000 \
0c
1?
b00110 F
1U
1@
1d
b00000000000000000000000000010000 8
1V
b00101 *
0H
b001 W
b110 O
b00000000010100110110010000110011 ,
1;
#416
0?
0`
0C
0@
0d
0U
0V
#421
b0000000 B
b00000 -
1`
0Q
b00000000000000000000000000000000 X
1C
b00000000000000000000000000010000 &
b000000000101 D
b01000 a
b00000 7
1?
1"
b00000 F
1@
1d
1U
b00000000000000000000000000000000 8
0#
1V
b00000 *
b010 W
b000 O
b01000 I
0;
#426
0?
0`
0C
0@
0d
0U
0V
#431
1?
1`
1C
1@
1d
1U
1V
b011 W
b01000 L
b00000000000000000000011111111111 )
#436
0?
0`
0C
0@
0d
0U
0V
#441
1`
1C
b00000000000000000000011111111111 b
b00000000000000000000011111111111 M
10
1?
1U
1@
1d
b00000000000000000000011111111111 G
1V
b100 W
1+
b00000000000000000000011111111111 P
#446
0?
0`
0C
0@
0d
0U
0V
#451
1`
1C
b00000000000000000000000000000000 b
b00000000000000000000000000000000 M
b00000000000000000000011111111111 \
00
1c
1?
b00000000010100110111010010110011 N
1U
1@
1d
b000000001001 1
b00000000000000000000000000000000 G
1V
1H
b000 W
0+
b00000000000000000000000000000000 P
b00000000000000000000000000100100 _
#456
0?
0`
0C
0@
0d
0U
0V
#461
b0110011 B
b00101 -
1`
1Q
b00000000000000000000011111101111 X
1C
b00110 7
b00000000000000000000000000000000 \
0c
1?
b00110 F
1U
1@
1d
b00000000000000000000000000010000 8
1V
b00101 *
0H
b001 W
b111 O
b00000000010100110111010010110011 ,
1;
#466
0?
0`
0C
0@
0d
0U
0V
#471
b0000000 B
b00000 -
1`
0Q
b00000000000000000000000000000000 X
1C
b01001 a
b00000 7
1?
0"
b00000 F
1@
1d
1U
b00000000000000000000000000000000 8
1V
b00000 *
1]
b010 W
b000 O
b01001 I
0;
#476
0?
0`
0C
0@
0d
0U
0V
#481
1?
1`
1C
1@
1d
1U
1V
b011 W
b01001 L
b00000000000000000000000000000000 )
#486
0?
0`
0C
0@
0d
0U
0V
#491
10
1?
1`
1C
1@
1d
1U
1V
b100 W
1+
#496
0?
0`
0C
0@
0d
0U
0V
#501
1`
1C
00
1c
1?
b00000000001000111001010100110011 N
1U
1@
1d
b000000001010 1
1V
1H
b000 W
0+
b00000000000000000000000000101000 _
#506
0?
0`
0C
0@
0d
0U
0V
#511
b0110011 B
b00010 -
1`
1Q
b00000000000000000000011111100110 X
1C
b00111 7
0c
1?
b00111 F
1U
1@
1d
b00000000000000000000000000000101 8
1V
b00010 *
0H
b001 W
b001 O
b00000000001000111001010100110011 ,
1;
#516
0?
0`
0C
0@
0d
0U
0V
#521
b0000000 B
b00000 -
1`
0Q
b00000000000000000000000000000000 X
1C
b00000000000000000000000000000101 &
b000000000010 D
b01010 a
b00000 7
b00000000000000000000011111100110 >
1?
b00000 F
1U
1@
1d
b00000000000000000000000000000000 8
1V
b00000 *
0]
b010 W
b000 O
1^
b01010 I
0;
#526
0?
0`
0C
0@
0d
0U
0V
#531
1?
1`
1C
1@
1d
1U
1V
b011 W
b01010 L
b00000000000000001111110011000000 )
#536
0?
0`
0C
0@
0d
0U
0V
#541
1`
1C
b00000000000000001111110011000000 b
b00000000000000001111110011000000 M
10
1?
1U
1@
1d
b00000000000000001111110011000000 G
1V
b100 W
1+
b00000000000000001111110011000000 P
#546
0?
0`
0C
0@
0d
0U
0V
#551
1`
1C
b00000000000000000000000000000000 b
b00000000000000000000000000000000 M
b00000000000000001111110011000000 \
00
1c
1?
b00000000001000111101010110110011 N
1U
1@
1d
b000000001011 1
b00000000000000000000000000000000 G
1V
1H
b000 W
0+
b00000000000000000000000000000000 P
b00000000000000000000000000101100 _
#556
0?
0`
0C
0@
0d
0U
0V
#561
b0110011 B
b00010 -
1`
1Q
b00000000000000000000011111100110 X
1C
b00111 7
b00000000000000000000000000000000 \
0c
1?
b00111 F
1U
1@
1d
b00000000000000000000000000000101 8
1V
b00010 *
0H
b001 W
b101 O
b00000000001000111101010110110011 ,
1;
#566
0?
0`
0C
0@
0d
0U
0V
#571
b0000000 B
b00000 -
1`
0Q
b00000000000000000000000000000000 X
1C
1R
b01011 a
b00000 7
1?
b00000 F
1U
1@
1d
b00000000000000000000000000000000 8
1V
b00000 *
b010 W
b000 O
0^
b01011 I
0;
#576
0?
0`
0C
0@
0d
0U
0V
#581
1?
1`
1C
1@
1d
1U
1V
b011 W
b01011 L
b00000000000000000000000000111111 )
#586
0?
0`
0C
0@
0d
0U
0V
#591
1`
1C
b00000000000000000000000000111111 b
b00000000000000000000000000111111 M
10
1?
1U
1@
1d
b00000000000000000000000000111111 G
1V
b100 W
1+
b00000000000000000000000000111111 P
#596
0?
0`
0C
0@
0d
0U
0V
#601
1`
1C
b00000000000000000000000000000000 b
b00000000000000000000000000000000 M
b00000000000000000000000000111111 \
00
1c
1?
b01000000001000111101011000110011 N
1U
1@
1d
b000000001100 1
b00000000000000000000000000000000 G
1V
1H
b000 W
0+
b00000000000000000000000000000000 P
b00000000000000000000000000110000 _
#606
0?
0`
0C
0@
0d
0U
0V
#611
b0110011 B
b00010 -
1`
1Q
b00000000000000000000011111100110 X
1C
b00111 7
b0100000 /
b00000000000000000000000000000000 \
0c
1?
b00111 F
1U
1@
1d
b00000000000000000000000000000101 8
1V
b00010 *
0H
b001 W
b101 O
b01000000001000111101011000110011 ,
1;
#616
0?
0`
0C
0@
0d
0U
0V
#621
b0000000 B
b00000 -
1`
0Q
b00000000000000000000000000000000 X
1C
0R
b010000000010 D
b01100 a
b00000 7
b0000000 /
1?
b00000 F
1U
1@
1d
b00000000000000000000000000000000 8
12
1V
b00000 *
b010 W
b000 O
b01100 I
0;
#626
0?
0`
0C
0@
0d
0U
0V
#631
1?
1`
1C
1@
1d
1U
1V
b011 W
b01100 L
#636
0?
0`
0C
0@
0d
0U
0V
#641
1`
1C
b00000000000000000000000000111111 b
b00000000000000000000000000111111 M
10
1?
1U
1@
1d
b00000000000000000000000000111111 G
1V
b100 W
1+
b00000000000000000000000000111111 P
#646
0?
0`
0C
0@
0d
0U
0V
#651
1`
1C
b00000000000000000000000000000000 b
b00000000000000000000000000000000 M
b00000000000000000000000000111111 \
00
1c
1?
b00000000010000100010011010110011 N
1U
1@
1d
b000000001101 1
b00000000000000000000000000000000 G
1V
1H
b000 W
0+
b00000000000000000000000000000000 P
b00000000000000000000000000110100 _
#656
0?
0`
0C
0@
0d
0U
0V
#661
b0110011 B
b00100 -
1`
1Q
b00000000000000000000011111111111 X
1C
b00100 7
b00000000000000000000000000000000 \
0c
1?
b00100 F
1U
1@
1d
b00000000000000000000011111111111 8
1V
b00100 *
0H
b001 W
b010 O
b00000000010000100010011010110011 ,
1;
#666
0?
0`
0C
0@
0d
0U
0V
#671
b0000000 B
b00000 -
1`
0Q
b00000000000000000000000000000000 X
1C
b00000000000000000000011111111111 &
b000000000100 D
b01101 a
b00000 7
b00000000000000000000011111111111 >
1?
b00000 F
1U
1@
1d
b00000000000000000000000000000000 8
02
1V
b00000 *
1$
b010 W
b000 O
b01101 I
0;
#676
0?
0`
0C
0@
0d
0U
0V
#681
1?
1`
1C
1@
1d
1U
1V
b011 W
b01101 L
b00000000000000000000000000000000 )
#686
0?
0`
0C
0@
0d
0U
0V
#691
10
1?
1`
1C
1@
1d
1U
1V
b100 W
1+
#696
0?
0`
0C
0@
0d
0U
0V
#701
1`
1C
00
1c
1?
b00000000010100100010011010110011 N
1U
1@
1d
b000000001110 1
1V
1H
b000 W
0+
b00000000000000000000000000111000 _
#706
0?
0`
0C
0@
0d
0U
0V
#711
b0110011 B
b00101 -
1`
1Q
b00000000000000000000011111111111 X
1C
b00100 7
0c
1?
b00100 F
1U
1@
1d
b00000000000000000000000000010000 8
1V
b00101 *
0H
b001 W
b010 O
b00000000010100100010011010110011 ,
1;
#716
0?
0`
0C
0@
0d
0U
0V
#721
b0000000 B
b00000 -
1`
0Q
b00000000000000000000000000000000 X
1C
b00000000000000000000000000010000 &
b000000000101 D
b00000 7
1?
b00000 F
1U
1@
1d
b00000000000000000000000000000000 8
1V
b00000 *
b010 W
b000 O
0;
#726
0?
0`
0C
0@
0d
0U
0V
#731
1?
1`
1C
1@
1d
1U
1V
b011 W
#736
0?
0`
0C
0@
0d
0U
0V
#741
10
1?
1`
1C
1@
1d
1U
1V
b100 W
1+
#746
0?
0`
0C
0@
0d
0U
0V
#751
1`
1C
00
1c
1?
b00000000010000101010011010110011 N
1U
1@
1d
b000000001111 1
1V
1H
b000 W
0+
b00000000000000000000000000111100 _
#756
0?
0`
0C
0@
0d
0U
0V
#761
b0110011 B
b00100 -
1`
1Q
b00000000000000000000000000010000 X
1C
b00101 7
0c
1?
b00101 F
1U
1@
1d
b00000000000000000000011111111111 8
1V
b00100 *
0H
b001 W
b010 O
b00000000010000101010011010110011 ,
1;
#766
0?
0`
0C
0@
0d
0U
0V
#771
b0000000 B
b00000 -
1`
0Q
b00000000000000000000000000000000 X
1C
b00000000000000000000011111111111 &
b000000000100 D
b00000 7
b00000000000000000000000000010000 >
1?
b00000 F
1U
1@
1d
b00000000000000000000000000000000 8
1V
b00000 *
b010 W
b000 O
0;
#776
0?
0`
0C
0@
0d
0U
0V
#781
1?
1`
1C
1@
1d
1U
1V
b011 W
b00000000000000000000000000000001 )
#786
0?
0`
0C
0@
0d
0U
0V
#791
1`
1C
b00000000000000000000000000000001 b
b00000000000000000000000000000001 M
10
1?
1U
1@
1d
b00000000000000000000000000000001 G
1V
b100 W
1+
b00000000000000000000000000000001 P
#796
0?
0`
0C
0@
0d
0U
0V
#801
1`
1C
b00000000000000000000000000000000 b
b00000000000000000000000000000000 M
b00000000000000000000000000000001 \
00
1c
1?
b00000000010000100011011010110011 N
1U
1@
1d
b000000010000 1
b00000000000000000000000000000000 G
1V
1H
b000 W
0+
b00000000000000000000000000000000 P
b00000000000000000000000001000000 _
#806
0?
0`
0C
0@
0d
0U
0V
#811
b0110011 B
b00100 -
1`
1Q
b00000000000000000000011111111111 X
1C
b00100 7
b00000000000000000000000000000000 \
0c
1?
b00100 F
1U
1@
1d
b00000000000000000000011111111111 8
1V
b00100 *
0H
b001 W
b011 O
b00000000010000100011011010110011 ,
1;
#816
0?
0`
0C
0@
0d
0U
0V
#821
13
b0000000 B
b00000 -
1`
0Q
b00000000000000000000000000000000 X
1C
b00000 7
b00000000000000000000011111111111 >
1?
b00000 F
1U
1@
1d
b00000000000000000000000000000000 8
1V
b00000 *
0$
b010 W
b000 O
0;
#826
0?
0`
0C
0@
0d
0U
0V
#831
1?
1`
1C
1@
1d
1U
1V
b011 W
b00000000000000000000000000000000 )
#836
0?
0`
0C
0@
0d
0U
0V
#841
10
1?
1`
1C
1@
1d
1U
1V
b100 W
1+
#846
0?
0`
0C
0@
0d
0U
0V
#851
1`
1C
00
1c
1?
b00000000010100100011011010110011 N
1U
1@
1d
b000000010001 1
1V
1H
b000 W
0+
b00000000000000000000000001000100 _
#856
0?
0`
0C
0@
0d
0U
0V
#861
b0110011 B
b00101 -
1`
1Q
b00000000000000000000011111111111 X
1C
b00100 7
0c
1?
b00100 F
1U
1@
1d
b00000000000000000000000000010000 8
1V
b00101 *
0H
b001 W
b011 O
b00000000010100100011011010110011 ,
1;
#866
0?
0`
0C
0@
0d
0U
0V
#871
b0000000 B
b00000 -
1`
0Q
b00000000000000000000000000000000 X
1C
b00000000000000000000000000010000 &
b000000000101 D
b00000 7
1?
b00000 F
1U
1@
1d
b00000000000000000000000000000000 8
1V
b00000 *
b010 W
b000 O
0;
#876
0?
0`
0C
0@
0d
0U
0V
#881
1?
1`
1C
1@
1d
1U
1V
b011 W
#886
0?
0`
0C
0@
0d
0U
0V
#891
10
1?
1`
1C
1@
1d
1U
1V
b100 W
1+
#896
0?
0`
0C
0@
0d
0U
0V
#901
1`
1C
00
1c
1?
b00000000010000101011011010110011 N
1U
1@
1d
b000000010010 1
1V
1H
b000 W
0+
b00000000000000000000000001001000 _
#906
0?
0`
0C
0@
0d
0U
0V
#911
b0110011 B
b00100 -
1`
1Q
b00000000000000000000000000010000 X
1C
b00101 7
0c
1?
b00101 F
1U
1@
1d
b00000000000000000000011111111111 8
1V
b00100 *
0H
b001 W
b011 O
b00000000010000101011011010110011 ,
1;
#916
0?
0`
0C
0@
0d
0U
0V
#921
b0000000 B
b00000 -
1`
0Q
b00000000000000000000000000000000 X
1C
b00000000000000000000011111111111 &
b000000000100 D
b00000 7
b00000000000000000000000000010000 >
1?
b00000 F
1U
1@
1d
b00000000000000000000000000000000 8
1V
b00000 *
b010 W
b000 O
0;
#926
0?
0`
0C
0@
0d
0U
0V
#931
1?
1`
1C
1@
1d
1U
1V
b011 W
b00000000000000000000000000000001 )
#936
0?
0`
0C
0@
0d
0U
0V
#941
1`
1C
b00000000000000000000000000000001 b
b00000000000000000000000000000001 M
10
1?
1U
1@
1d
b00000000000000000000000000000001 G
1V
b100 W
1+
b00000000000000000000000000000001 P
#946
0?
0`
0C
0@
0d
0U
0V
#951
1`
1C
b00000000000000000000000000000000 b
b00000000000000000000000000000000 M
b00000000000000000000000000000001 \
00
1c
1?
b00000000000000000000000000000000 N
1U
1@
1d
b000000010011 1
b00000000000000000000000000000000 G
1V
1H
b000 W
0+
b00000000000000000000000000000000 P
b00000000000000000000000001001100 _
#956
0?
0`
0C
0@
0d
0U
0V
#961
1Q
1`
1C
b00000000000000000000000000000000 \
0c
1?
1U
1@
1d
1V
0H
b001 W
b00000000000000000000000000000000 ,
1;
#966
0?
0`
0C
0@
0d
0U
0V
#971
03
0Q
1`
1C
b00000000000000000000000000000000 &
b000000000000 D
b00000 a
b00000000000000000000000000000000 >
1?
1U
1@
1d
1V
b010 W
b00000 I
0;
#976
0?
0`
0C
0@
0d
0U
0V
#981
1?
1`
1C
1@
1d
1U
1V
b011 W
b00000 L
b11111111111111111111111111111111 )
#986
0?
0`
0C
0@
0d
0U
0V
#991
1`
1C
b11111111111111111111111111111111 b
b11111111111111111111111111111111 M
10
1?
1U
1@
1d
b11111111111111111111111111111111 G
1V
b100 W
1+
b11111111111111111111111111111111 P
