01_warm-up/test_run_dir/BasicAdder_should_work/BasicAdder.vcd
$date
2024-02-24T20:17+0000
$end
$version
0.2
$end
$comment

$end
$timescale 1ns  $end
$scope module BasicAdder $end
 $var wire 8 ! io_c $end
 $var wire 8 " io_b $end
 $var wire 1 # clock $end
 $var wire 8 $ Reg $end
 $var wire 8 % io_a $end
 $var wire 1 & reset $end
$upscope $end
$enddefinitions $end
$dumpvars
0&
0#
b00000000 !
b00000000 %
b00000000 "
b00000000 $
$end
#0
1&
#1
1#
#6
0&
0#
#11
1#
#16
b00000001 "
0#
#21
b00000001 !
1#
b00000001 $
#26
b00000010 "
0#
#31
b00000010 !
1#
b00000010 $
#36
b00000011 "
0#
#41
b00000011 !
1#
b00000011 $
#46
b00000100 "
0#
#51
b00000100 !
1#
b00000100 $
#56
b00000101 "
0#
#61
b00000101 !
1#
b00000101 $
#66
b00000110 "
0#
#71
b00000110 !
1#
b00000110 $
#76
b00000111 "
0#
#81
b00000111 !
1#
b00000111 $
#86
b00000001 %
b00000000 "
0#
#91
b00000001 !
1#
b00000001 $
#96
b00000001 "
0#
#101
b00000010 !
1#
b00000010 $
#106
b00000010 "
0#
#111
b00000011 !
1#
b00000011 $
#116
b00000011 "
0#
#121
b00000100 !
1#
b00000100 $
#126
b00000100 "
0#
#131
b00000101 !
1#
b00000101 $
#136
b00000101 "
0#
#141
b00000110 !
1#
b00000110 $
#146
b00000110 "
0#
#151
b00000111 !
1#
b00000111 $
#156
b00000111 "
0#
#161
b00001000 !
1#
b00001000 $
#166
b00000010 %
b00000000 "
0#
#171
b00000010 !
1#
b00000010 $
#176
b00000001 "
0#
#181
b00000011 !
1#
b00000011 $
#186
b00000010 "
0#
#191
b00000100 !
1#
b00000100 $
#196
b00000011 "
0#
#201
b00000101 !
1#
b00000101 $
#206
b00000100 "
0#
#211
b00000110 !
1#
b00000110 $
#216
b00000101 "
0#
#221
b00000111 !
1#
b00000111 $
#226
b00000110 "
0#
#231
b00001000 !
1#
b00001000 $
#236
b00000111 "
0#
#241
b00001001 !
1#
b00001001 $
#246
b00000011 %
b00000000 "
0#
#251
b00000011 !
1#
b00000011 $
#256
b00000001 "
0#
#261
b00000100 !
1#
b00000100 $
#266
b00000010 "
0#
#271
b00000101 !
1#
b00000101 $
#276
b00000011 "
0#
#281
b00000110 !
1#
b00000110 $
#286
b00000100 "
0#
#291
b00000111 !
1#
b00000111 $
#296
b00000101 "
0#
#301
b00001000 !
1#
b00001000 $
#306
b00000110 "
0#
#311
b00001001 !
1#
b00001001 $
#316
b00000111 "
0#
#321
b00001010 !
1#
b00001010 $
#326
b00000100 %
b00000000 "
0#
#331
b00000100 !
1#
b00000100 $
#336
b00000001 "
0#
#341
b00000101 !
1#
b00000101 $
#346
b00000010 "
0#
#351
b00000110 !
1#
b00000110 $
#356
b00000011 "
0#
#361
b00000111 !
1#
b00000111 $
#366
b00000100 "
0#
#371
b00001000 !
1#
b00001000 $
#376
b00000101 "
0#
#381
b00001001 !
1#
b00001001 $
#386
b00000110 "
0#
#391
b00001010 !
1#
b00001010 $
#396
b00000111 "
0#
#401
b00001011 !
1#
b00001011 $
#406
b00000101 %
b00000000 "
0#
#411
b00000101 !
1#
b00000101 $
#416
b00000001 "
0#
#421
b00000110 !
1#
b00000110 $
#426
b00000010 "
0#
#431
b00000111 !
1#
b00000111 $
#436
b00000011 "
0#
#441
b00001000 !
1#
b00001000 $
#446
b00000100 "
0#
#451
b00001001 !
1#
b00001001 $
#456
b00000101 "
0#
#461
b00001010 !
1#
b00001010 $
#466
b00000110 "
0#
#471
b00001011 !
1#
b00001011 $
#476
b00000111 "
0#
#481
b00001100 !
1#
b00001100 $
#486
b00000110 %
b00000000 "
0#
#491
b00000110 !
1#
b00000110 $
#496
b00000001 "
0#
#501
b00000111 !
1#
b00000111 $
#506
b00000010 "
0#
#511
b00001000 !
1#
b00001000 $
#516
b00000011 "
0#
#521
b00001001 !
1#
b00001001 $
#526
b00000100 "
0#
#531
b00001010 !
1#
b00001010 $
#536
b00000101 "
0#
#541
b00001011 !
1#
b00001011 $
#546
b00000110 "
0#
#551
b00001100 !
1#
b00001100 $
#556
b00000111 "
0#
#561
b00001101 !
1#
b00001101 $
#566
b00000111 %
b00000000 "
0#
#571
b00000111 !
1#
b00000111 $
#576
b00000001 "
0#
#581
b00001000 !
1#
b00001000 $
#586
b00000010 "
0#
#591
b00001001 !
1#
b00001001 $
#596
b00000011 "
0#
#601
b00001010 !
1#
b00001010 $
#606
b00000100 "
0#
#611
b00001011 !
1#
b00001011 $
#616
b00000101 "
0#
#621
b00001100 !
1#
b00001100 $
#626
b00000110 "
0#
#631
b00001101 !
1#
b00001101 $
#636
b00000111 "
0#
#641
b00001110 !
1#
b00001110 $
#646
b00000000 %
b00000000 "
0#
