04_pipelined_RISC-V_core/test_run_dir/PipelinedRV32I_Tester_should_work/PipelinedRV32I.vcd
$date
2024-04-26T20:50+0000
$end
$version
0.2
$end
$comment

$end
$timescale 1ns  $end
$scope module PipelinedRV32I $end
 $var wire 1 S core $end
 $var wire 1 c clock $end
 $var wire 32 p io_result $end
 $var wire 1 "1 reset $end
  $scope module core.exBarrier $end
  $upscope $end
  $scope module core.EX $end
  $upscope $end
  $scope module core.memBarrier $end
  $upscope $end
  $scope module core.IF $end
  $upscope $end
  $scope module core.ifBarrier $end
  $upscope $end
  $scope module core.ID $end
  $upscope $end
  $scope module core $end
   $var wire 1 " reset $end
   $var wire 1 , WB $end
   $var wire 1 8 memBarrier $end
   $var wire 1 G EX $end
   $var wire 1 I MEM $end
   $var wire 1 L idBarrier $end
   $var wire 1 U regFile $end
   $var wire 1 W clock $end
   $var wire 1 [ ID $end
   $var wire 32 f io_check_res $end
   $var wire 1 "* ifBarrier $end
   $var wire 32 "5 pc $end
   $var wire 1 "8 IF $end
   $var wire 1 "= exBarrier $end
    $scope module regFile $end
     $var wire 1 + io_write_writeEn $end
     $var wire 5 4 io_req1_rs $end
     $var wire 32 ? io_resp1_data $end
     $var wire 32 Z io_resp2_data $end
     $var wire 1 ` clock $end
     $var wire 32 o io_write_data $end
     $var wire 5 | io_req2_rs $end
     $var wire 5 "# io_write_rd $end
     $var wire 32 "4 regFile $end
      $scope module regFile $end
       $var wire 32 X MPORT $end
       $var wire 32 "? MPORT_1 $end
        $scope module MPORT $end
         $var wire 5 ! addr $end
         $var wire 1 ( clk $end
         $var wire 32 * pipeline_data_0 $end
         $var wire 32 A data $end
         $var wire 1 Q pipeline_valid_0 $end
         $var wire 1 ^ en $end
         $var wire 1 q valid $end
         $var wire 5 u pipeline_addr_0 $end
         $var wire 1 "$ mask $end
        $upscope $end
        $scope module MPORT_1 $end
         $var wire 32 $ pipeline_data_0 $end
         $var wire 1 % pipeline_valid_0 $end
         $var wire 1 K mask $end
         $var wire 1 d valid $end
         $var wire 5 l addr $end
         $var wire 1 m en $end
         $var wire 5 "( pipeline_addr_0 $end
         $var wire 1 "7 clk $end
         $var wire 32 "@ data $end
        $upscope $end
        $scope module io_resp2_data_MPORT $end
         $var wire 1 5 en $end
         $var wire 5 H addr $end
         $var wire 1 R clk $end
         $var wire 32 { data $end
        $upscope $end
        $scope module io_resp1_data_MPORT $end
         $var wire 5 > addr $end
         $var wire 1 g en $end
         $var wire 32 n data $end
         $var wire 1 "% clk $end
        $upscope $end
      $upscope $end
    $upscope $end
    $scope module memBarrier $end
     $var wire 5 # io_rdIn $end
     $var wire 1 ; clock $end
     $var wire 32 B resReg $end
     $var wire 32 C io_resultIn $end
     $var wire 5 b io_rdOut $end
     $var wire 32 k io_resultOut $end
     $var wire 5 "; rdreg $end
    $upscope $end
    $scope module ifBarrier $end
     $var wire 1 & clock $end
     $var wire 32 ] io_instrIn $end
     $var wire 32 "' io_instrOut $end
     $var wire 32 "< instrReg $end
    $upscope $end
    $scope module idBarrier $end
     $var wire 8 ' opReg $end
     $var wire 12 6 immReg $end
     $var wire 5 7 io_rs1out $end
     $var wire 5 < rs2Reg $end
     $var wire 8 @ io_uop $end
     $var wire 1 N clock $end
     $var wire 5 T io_rdOut $end
     $var wire 8 V io_uopOut $end
     $var wire 12 i io_immediateOut $end
     $var wire 5 t io_rs2 $end
     $var wire 5 ~ io_rs2out $end
     $var wire 5 "! rs1Reg $end
     $var wire 5 "+ io_rs1 $end
     $var wire 5 ", io_rd $end
     $var wire 12 "2 io_immediate $end
     $var wire 5 "9 rdReg $end
    $upscope $end
    $scope module exBarrier $end
     $var wire 5 ) io_rd $end
     $var wire 5 - rdReg $end
     $var wire 32 : io_resOut $end
     $var wire 32 \ resultReg $end
     $var wire 5 s io_rdOut $end
     $var wire 32 } io_result $end
     $var wire 1 "& clock $end
    $upscope $end
    $scope module ID $end
     $var wire 32 . io_instr $end
     $var wire 5 1 io_rd $end
     $var wire 5 9 io_rs1 $end
     $var wire 5 E rs2 $end
     $var wire 7 M funct7 $end
     $var wire 12 a io_immediate $end
     $var wire 8 e io_uop $end
     $var wire 7 v opcode $end
     $var wire 3 w funct3 $end
     $var wire 5 x rs1 $end
     $var wire 5 ") rd $end
     $var wire 5 "/ io_rs2 $end
     $var wire 12 "3 imm $end
    $upscope $end
    $scope module IF $end
     $var wire 1 J clock $end
     $var wire 32 r io_pc $end
     $var wire 32 "" io_pcNew $end
     $var wire 32 "0 IMem $end
     $var wire 32 "> io_instr $end
      $scope module IMem $end
        $scope module io_instr_MPORT $end
         $var wire 32 / data $end
         $var wire 1 0 en $end
         $var wire 1 z clk $end
         $var wire 12 "- addr $end
        $upscope $end
      $upscope $end
    $upscope $end
    $scope module EX $end
     $var wire 32 2 io_operandB $end
     $var wire 32 D io_result $end
     $var wire 8 F io_uop $end
     $var wire 32 P io_operandA $end
     $var wire 12 ": io_immediate $end
    $upscope $end
    $scope module MEM $end
     $var wire 32 3 io_resultO $end
     $var wire 32 O io_result $end
     $var wire 5 Y io_rd $end
     $var wire 5 y io_rdO $end
    $upscope $end
    $scope module WB $end
     $var wire 32 = io_result $end
     $var wire 32 _ io_wbToRegFile_data $end
     $var wire 5 h io_rd $end
     $var wire 32 j io_check_res $end
     $var wire 1 ". io_wbToRegFile_writeEn $end
     $var wire 5 "6 io_wbToRegFile_rd $end
    $upscope $end
  $upscope $end
  $scope module core.idBarrier $end
  $upscope $end
  $scope module core.MEM $end
  $upscope $end
  $scope module core.regFile $end
  $upscope $end
  $scope module core.WB $end
  $upscope $end
$upscope $end
$enddefinitions $end
$dumpvars
b00000000000000000000000000000000 n
b00000000010000000000000010010011 "0
0"7
0&
b00000000000000000000000000000000 ">
b00000 |
0R
0"1
b00000000000000000000000000000000 r
b00000 -
b00000000000000000000000000000000 O
b00000000000000000000000000000000 :
b00000 "9
b00000000000000000000000000000000 "4
b00000000000000000000000000000000 }
b00000 #
0L
b00000 Y
b00000000 V
0[
b00000 h
b00000 >
0z
b00000 ")
b00000000000000000000000000000000 A
0+
1"$
b00000000000000000000000000000000 $
b000000000000 "3
0W
0%
b00000000000000000000000000000000 Z
0"8
b00000000000000000000000000000000 ?
b00000000 e
b00000000000000000000000000000000 k
b00000 "!
b00000 y
10
b00000000000000000000000000000000 P
0".
b00000000000000000000000000000000 3
b000000000000 "-
b0000000 v
b00000000000000000000000000000000 "5
0Q
b00000 s
0I
0`
0"*
b00000000000000000000000000000000 /
b00000000 @
0(
b00000000000000000000000000000000 "@
b00000 7
b00000000000000000000000000000000 _
0"=
b00000000000000000000000000000000 B
b00000 1
b00000 ",
b00000000000000000000000000000000 "<
b00000000000000000000000000000000 "'
b00000000000000000000000000000000 D
0;
1m
b00000 H
b00000000000000000000000000000000 p
b00000 ";
1g
0q
b00000000000000000000000000000000 j
15
b00000 ~
0"
b000000000000 "2
b000 w
b00000 x
0N
b00000000000000000000000000000000 2
b00000 )
b00000000000000000000000000000000 f
b00000 t
0J
b00000000000000000000000000000000 .
b000000000000 i
b00000 <
0c
b00000 "/
b00000000000000000000000000000000 \
0"%
b00000000000000000000000000000000 *
b00000000000000000000000000000000 {
b00000 !
b00000 "+
b00000000000000000000000000000000 X
b00000000000000000000000000000000 C
b00000 l
b00000000000000000000000000000000 o
b00000000000000000000000000000000 =
b000000000000 a
b00000 4
b00000000 F
b00000000000000000000000000000000 "?
0S
b00000000000000000000000000000000 ""
1K
0U
b00000 "6
b00000 b
08
b00000 E
b00000 "#
0d
b00000000 '
1^
b00000 u
b000000000000 6
b0000000 M
b00000000000000000000000000000000 ]
0G
b00000 "(
0"&
b00000 T
b000000000000 ":
0,
b00000 9
$end
#0
b11111111111111111111111111111111 }
b11111111111111111111111111111111 D
b00000000010000000000000010010011 /
1".
1q
b00000000010000000000000010010011 ">
1"
1d
b11111111 @
b00000000000000000000000000000100 ""
1"1
b11111111 e
b00000000010000000000000010010011 ]
1+
#1
b11111111111111111111111111111111 3
1Q
b00001 ",
1R
1J
1"%
1"&
b000000000100 a
b00000000010000000000000010010011 "<
b00000000010000000000000010010011 "'
1c
1N
b11111111 F
b00001 1
1"7
1z
b00010000 e
b00100 t
b000000000100 "2
1`
1%
b11111111111111111111111111111111 C
b00000000010000000000000010010011 .
b000000000100 "3
b0010011 v
1&
b11111111 '
b00100 E
1(
b11111111111111111111111111111111 \
b00100 "/
b00010000 @
b11111111 V
b00001 ")
1W
b11111111111111111111111111111111 O
b11111111111111111111111111111111 :
1;
#6
0`
0R
0J
0&
0"%
0"&
0(
0c
0N
0"
0"7
0z
0"1
0W
0;
#11
b11111111111111111111111111111111 f
b00100 <
1R
1J
b00000000000000000000000000000100 }
1"%
b00100 ~
1"&
b000000000100 6
b000000000100 i
b11111111111111111111111111111111 j
b00000000010100000000000100010011 /
1c
1N
b00000000010100000000000100010011 ">
b00010000 F
1"7
b00000000000000000000000000001000 ""
1z
b00000000010100000000000100010011 ]
b00100 H
b00100 |
b00001 "9
b11111111111111111111111111111111 _
b000000000100 ":
b11111111111111111111111111111111 B
1`
1&
b00000000000000000000000000000100 D
b11111111111111111111111111111111 o
b00010000 '
b00000000000000000000000000000100 "5
b11111111111111111111111111111111 =
1(
b000000000001 "-
b11111111111111111111111111111111 p
b00001 )
b00001 T
b00000000000000000000000000000100 r
b11111111111111111111111111111111 k
b00010000 V
1W
b11111111111111111111111111111111 "@
1;
#16
0c
0`
0N
0R
0J
0&
0"7
0"%
0z
0W
0"&
0(
0;
#21
b00000000000000000000000000000100 3
b00010 ",
1R
1J
1"%
1"&
b000000000101 a
b00000000010100000000000100010011 "<
b00000000010100000000000100010011 "'
b00000000000000000000000000010011 /
1c
1N
b00000000000000000000000000010011 ">
b00001 y
b00010 1
1"7
b00000000000000000000000000001100 ""
1z
b00000000000000000000000000010011 ]
b00101 t
b00001 -
1`
b000000000101 "2
b00000000000000000000000000000100 C
b00000000010100000000000100010011 .
b000000000101 "3
1&
b00001 Y
b00101 E
b00000000000000000000000000001000 "5
1(
b000000000010 "-
b00000000000000000000000000000100 \
b00000000000000000000000000001000 r
b00101 "/
b00001 s
b00001 #
b11111111111111111111111111111111 $
1W
b00010 ")
b00000000000000000000000000000100 O
b00000000000000000000000000000100 :
1;
#26
0c
0`
0N
0R
0J
0&
0"7
0"%
0z
0W
0"&
0(
0;
#31
b00000000000000000000000000000100 f
b00101 <
b00000000000000000000000000000101 }
1"%
b00001 h
b000000000101 6
b00000000000000000000000000010011 "<
b00000000000000000000000000000100 j
b00000000000000000000000000010011 "'
b00001 b
b01111111111100000000001000010011 ">
b00001 "6
b00001 "#
b000000000101 ":
b000000000000 "2
1`
b00000000000000000000000000010011 .
1&
b00000000000000000000000000000100 o
b00000 E
b00000000000000000000000000000100 =
1(
b00010 T
b00000000000000000000000000000100 k
1;
b00000 ",
1R
1J
b00001 ";
1"&
b00101 ~
b000000000101 i
b000000000000 a
b01111111111100000000001000010011 /
1c
1N
b00000 1
1"7
b00000000000000000000000000010000 ""
1z
b01111111111100000000001000010011 ]
b00101 H
b00101 |
b00010 "9
b00000 t
b00000000000000000000000000000100 _
b00000000000000000000000000000100 B
b000000000000 "3
b00000000000000000000000000000101 D
b00000000000000000000000000001100 "5
b000000000011 "-
b00000000000000000000000000000100 p
b00010 )
b00000000000000000000000000001100 r
b00000 "/
b00001 l
1W
b00000 ")
b00000000000000000000000000000100 "@
#36
0c
0`
0N
0R
0J
0&
0"7
0"%
0z
0W
0"&
0(
0;
#41
b00000 <
b00000000000000000000000000000000 }
1"%
b000000000000 6
b01111111111100000000001000010011 "<
b01111111111100000000001000010011 "'
b0111111 M
b00000001000000000000001010010011 ">
b00010 y
b000000000000 ":
b011111111111 "2
1`
b00000000000000000000000000000101 C
b01111111111100000000001000010011 .
1&
b11111 E
1(
b00000000000000000000000000000101 \
b00000 T
b00010 s
b00001 "(
b00000000000000000000000000000100 $
1;
b00000000000000000000000000000101 3
b00100 ",
1R
1J
b00000 ~
1"&
b000000000000 i
b011111111111 a
b00000001000000000000001010010011 /
1c
1N
b00100 1
1"7
b00000000000000000000000000010100 ""
1z
b00000001000000000000001010010011 ]
b00000 H
b00000 |
b00000 "9
b11111 t
b00010 -
b011111111111 "3
b00010 Y
b00000000000000000000000000000000 D
b00000000000000000000000000010000 "5
b000000000100 "-
b00000 )
b00000000000000000000000000010000 r
b11111 "/
b00010 #
b00100 ")
1W
b00000000000000000000000000000101 O
b00000000000000000000000000000101 :
#46
0c
0`
0N
0R
0J
0&
0"7
0"%
0z
0W
0"&
0(
0;
#51
b00000000000000000000000000000101 f
b11111 <
b00000000000000000000011111111111 }
1"%
b00010 h
b011111111111 6
b00000001000000000000001010010011 "<
b00000000000000000000000000000101 j
b00000001000000000000001010010011 "'
b00010 b
b0000000 M
b00000000001000001000000110110011 ">
b00010 "6
b00000 y
b00010 "#
b011111111111 ":
b000000010000 "2
1`
b00000000000000000000000000000000 C
b00000001000000000000001010010011 .
1&
b00000000000000000000000000000101 o
b10000 E
b00000000000000000000000000000101 =
1(
b00000000000000000000000000000000 \
b00100 T
b00000 s
b00000000000000000000000000000101 k
1;
b00000000000000000000000000000000 3
b00101 ",
1R
1J
b00010 ";
1"&
b11111 ~
b011111111111 i
b000000010000 a
b00000000001000001000000110110011 /
1c
1N
b00101 1
1"7
b00000000000000000000000000011000 ""
1z
b00000000001000001000000110110011 ]
b11111 H
b11111 |
b00100 "9
b10000 t
b00000000000000000000000000000101 _
b00000000000000000000000000000101 B
b00000 -
b000000010000 "3
b00000 Y
b00000000000000000000011111111111 D
b00000000000000000000000000010100 "5
b000000000101 "-
b00000000000000000000000000000101 p
b00100 )
b00000000000000000000000000010100 r
b10000 "/
b00000 #
b00010 l
1W
b00101 ")
b00000000000000000000000000000000 O
b00000000000000000000000000000000 :
b00000000000000000000000000000101 "@
#56
0c
0`
0N
0R
0J
0&
0"7
0"%
0z
0W
0"&
0(
0;
#61
b00000000000000000000000000000000 f
b10000 <
b00000000000000000000000000010000 }
1"%
b00000 h
b000000010000 6
b00000000001000001000000110110011 "<
b00000000000000000000000000000000 j
b00000000001000001000000110110011 "'
b00000 b
b00000000000000000000000000000000 ">
b00000 "6
b00100 y
b00000 "#
b000000010000 ":
b000000000010 "2
1`
b00000000000000000000011111111111 C
b00000000001000001000000110110011 .
1&
b00000000000000000000000000000000 o
b00010 E
b00000000000000000000000000000000 =
1(
b00000000000000000000011111111111 \
b00101 T
b00100 s
b00010 "(
b00000000000000000000000000000000 k
b00001 9
b00000000000000000000000000000101 $
1;
b00000000000000000000011111111111 3
b00011 ",
1R
1J
b00000 ";
1"&
b10000 ~
b000000010000 i
b000000000010 a
b00000000000000000000000000000000 /
1c
1N
b00011 1
1"7
b00000000000000000000000000011100 ""
1z
b00000001 e
b00000000000000000000000000000000 ]
b10000 H
b10000 |
b00101 "9
b00010 t
b00000000000000000000000000000000 _
b00000000000000000000000000000000 B
b00100 -
b000000000010 "3
b0110011 v
b00100 Y
b00000000000000000000000000010000 D
b00000000000000000000000000011000 "5
b00001 x
b000000000110 "-
b00000000000000000000000000000000 p
b00101 )
b00000000000000000000000000011000 r
b00010 "/
b00000001 @
b00100 #
b00000 l
1W
b00011 ")
b00000000000000000000011111111111 O
b00000000000000000000011111111111 :
b00000000000000000000000000000000 "@
b00001 "+
#66
0c
0`
0N
0R
0J
0&
0"7
0"%
0z
0W
0"&
0(
0;
#71
b00000 "+
b00000000000000000000011111111111 f
b00010 <
b00001 4
b00000000000000000000000000001001 }
1"%
b00100 h
b000000000010 6
b00000000000000000000000000000000 "<
b00000000000000000000011111111111 j
b00000000000000000000000000000000 "'
b00100 b
b00100 "6
b00101 y
b00001 "!
b00000000000000000000000000000101 2
b00000000000000000000000000000101 {
b00100 "#
b000000000010 ":
b000000000000 "2
1`
b00000000000000000000000000010000 C
b00000000000000000000000000000000 .
1&
b00000000000000000000011111111111 o
b00000000000000000000000000000101 Z
b00000 E
b00000000000000000000011111111111 =
1(
b00000000000000000000000000010000 \
b00011 T
b00000000000000000000000000000100 ?
b00101 s
b00000 "(
b00000000000000000000011111111111 k
b00000001 V
b00000 9
b00000000000000000000000000000000 $
b00000000000000000000000000000100 P
1;
b00000000000000000000000000010000 3
b00000 ",
1R
1J
b00100 ";
1"&
b00010 ~
b000000000010 i
b000000000000 a
b00001 7
1c
1N
b00000001 F
b00000 1
1"7
b00000000000000000000000000100000 ""
1z
b11111111 e
b00010 H
b00010 |
b00011 "9
b00000 t
b00000000000000000000011111111111 _
b00000000000000000000011111111111 B
b00101 -
b000000000000 "3
b0000000 v
b00101 Y
b00000000000000000000000000001001 D
b00000001 '
b00000000000000000000000000011100 "5
b00000 x
b000000000111 "-
b00000000000000000000011111111111 p
b00001 >
b00011 )
b00000000000000000000000000011100 r
b00000 "/
b11111111 @
b00101 #
b00100 l
1W
b00000 ")
b00000000000000000000000000010000 O
b00000000000000000000000000010000 :
b00000000000000000000011111111111 "@
b00000000000000000000000000000100 n
#76
0c
0`
0N
0R
0J
0&
0"7
0"%
0z
0W
0"&
0(
0;
#81
b00000000000000000000000000010000 f
b00000 <
b00000 4
b11111111111111111111111111111111 }
1"%
b00101 h
b000000000000 6
b00000000000000000000000000010000 j
b00101 b
b00101 "6
b00011 y
b00000 "!
b00000000000000000000000000000000 2
b00000000000000000000000000000000 {
b00101 "#
b000000000000 ":
1`
b00000000000000000000000000001001 C
1&
b00000000000000000000000000010000 o
b00000000000000000000000000000000 Z
b00000000000000000000000000010000 =
1(
b00000000000000000000000000001001 \
b00000 T
b00000000000000000000000000000000 ?
b00011 s
b00100 "(
b00000000000000000000000000010000 k
b11111111 V
b00000000000000000000011111111111 $
b00000000000000000000000000000000 P
1;
b00000000000000000000000000001001 3
1R
1J
b00101 ";
1"&
b00000 ~
b000000000000 i
b00000 7
1c
1N
b11111111 F
1"7
b00000000000000000000000000100100 ""
1z
b00000 H
b00000 |
b00000 "9
b00000000000000000000000000010000 _
b00000000000000000000000000010000 B
b00011 -
b00011 Y
b11111111111111111111111111111111 D
b11111111 '
b00000000000000000000000000100000 "5
b000000001000 "-
b00000000000000000000000000010000 p
b00000 >
b00000 )
b00000000000000000000000000100000 r
b00011 #
b00101 l
1W
b00000000000000000000000000001001 O
b00000000000000000000000000001001 :
b00000000000000000000000000010000 "@
b00000000000000000000000000000000 n
#86
0c
0`
0N
0R
0J
0&
0"7
0"%
0z
0W
0"&
0(
0;
#91
b11111111111111111111111111111111 3
b00000000000000000000000000001001 f
1R
1J
1"%
b00011 h
b00011 ";
1"&
b00000000000000000000000000001001 j
b00011 b
1c
1N
b00011 "6
b00000 y
1"7
b00000000000000000000000000101000 ""
1z
b00011 "#
b00000000000000000000000000001001 _
b00000000000000000000000000001001 B
b00000 -
1`
b11111111111111111111111111111111 C
1&
b00000 Y
b00000000000000000000000000001001 o
b00000000000000000000000000100100 "5
b00000000000000000000000000001001 =
1(
b000000001001 "-
b00000000000000000000000000001001 p
b11111111111111111111111111111111 \
b00000000000000000000000000100100 r
b00000 s
b00101 "(
b00000000000000000000000000001001 k
b00000 #
b00000000000000000000000000010000 $
1W
b00011 l
b11111111111111111111111111111111 O
b11111111111111111111111111111111 :
b00000000000000000000000000001001 "@
1;
