05_pipelined_hazardDetection_RISC-V_core/test_run_dir/PipelinedRV32I_Tester_should_work/PipelinedRV32I.vcd
$date
2024-05-18T10:26+0000
$end
$version
0.2
$end
$comment

$end
$timescale 1ns  $end
$scope module PipelinedRV32I $end
 $var wire 1 Y core $end
 $var wire 1 k clock $end
 $var wire 32 x io_result $end
 $var wire 1 "= reset $end
  $scope module core.exBarrier $end
  $upscope $end
  $scope module core.EX $end
  $upscope $end
  $scope module core.memBarrier $end
  $upscope $end
  $scope module core.IF $end
  $upscope $end
  $scope module core.ifBarrier $end
  $upscope $end
  $scope module core.ID $end
  $upscope $end
  $scope module core $end
   $var wire 1 " reset $end
   $var wire 1 , WB $end
   $var wire 1 9 memBarrier $end
   $var wire 32 < forwardA $end
   $var wire 1 > fwUnit $end
   $var wire 1 L EX $end
   $var wire 1 N MEM $end
   $var wire 1 R idBarrier $end
   $var wire 1 \ regFile $end
   $var wire 1 ^ clock $end
   $var wire 1 b ID $end
   $var wire 32 n io_check_res $end
   $var wire 1 "5 ifBarrier $end
   $var wire 32 "@ forwardB $end
   $var wire 32 "B pc $end
   $var wire 1 "E IF $end
   $var wire 1 "J exBarrier $end
    $scope module regFile $end
     $var wire 1 + io_write_writeEn $end
     $var wire 5 5 io_req1_rs $end
     $var wire 32 C io_resp1_data $end
     $var wire 32 a io_resp2_data $end
     $var wire 1 h clock $end
     $var wire 32 w io_write_data $end
     $var wire 5 "& io_req2_rs $end
     $var wire 5 ". io_write_rd $end
     $var wire 32 "A regFile $end
      $scope module regFile $end
       $var wire 32 _ MPORT $end
       $var wire 32 "L MPORT_1 $end
        $scope module MPORT $end
         $var wire 5 ! addr $end
         $var wire 1 ( clk $end
         $var wire 32 * pipeline_data_0 $end
         $var wire 32 F data $end
         $var wire 1 W pipeline_valid_0 $end
         $var wire 1 e en $end
         $var wire 1 y valid $end
         $var wire 5 } pipeline_addr_0 $end
         $var wire 1 "/ mask $end
        $upscope $end
        $scope module MPORT_1 $end
         $var wire 32 $ pipeline_data_0 $end
         $var wire 1 % pipeline_valid_0 $end
         $var wire 1 P mask $end
         $var wire 1 l valid $end
         $var wire 5 t addr $end
         $var wire 1 u en $end
         $var wire 5 "3 pipeline_addr_0 $end
         $var wire 1 "D clk $end
         $var wire 32 "M data $end
        $upscope $end
        $scope module io_resp2_data_MPORT $end
         $var wire 1 6 en $end
         $var wire 5 M addr $end
         $var wire 1 X clk $end
         $var wire 32 "% data $end
        $upscope $end
        $scope module io_resp1_data_MPORT $end
         $var wire 5 B addr $end
         $var wire 1 o en $end
         $var wire 32 v data $end
         $var wire 1 "0 clk $end
        $upscope $end
      $upscope $end
    $upscope $end
    $scope module memBarrier $end
     $var wire 5 # io_rdIn $end
     $var wire 1 ? clock $end
     $var wire 32 G resReg $end
     $var wire 32 H io_resultIn $end
     $var wire 5 j io_rdOut $end
     $var wire 32 s io_resultOut $end
     $var wire 5 "H rdreg $end
    $upscope $end
    $scope module ifBarrier $end
     $var wire 1 & clock $end
     $var wire 32 d io_instrIn $end
     $var wire 32 "2 io_instrOut $end
     $var wire 32 "I instrReg $end
    $upscope $end
    $scope module idBarrier $end
     $var wire 8 ' opReg $end
     $var wire 12 7 immReg $end
     $var wire 5 8 io_rs1out $end
     $var wire 5 @ rs2Reg $end
     $var wire 8 D io_uop $end
     $var wire 1 T clock $end
     $var wire 5 [ io_rdOut $end
     $var wire 8 ] io_uopOut $end
     $var wire 12 q io_immediateOut $end
     $var wire 5 | io_rs2 $end
     $var wire 5 ") io_rs2out $end
     $var wire 5 ", rs1Reg $end
     $var wire 5 "6 io_rs1 $end
     $var wire 5 "7 io_rd $end
     $var wire 12 "> io_immediate $end
     $var wire 5 "F rdReg $end
    $upscope $end
    $scope module exBarrier $end
     $var wire 5 ) io_rd $end
     $var wire 5 . rdReg $end
     $var wire 32 = io_resOut $end
     $var wire 32 c resultReg $end
     $var wire 5 { io_rdOut $end
     $var wire 32 "( io_result $end
     $var wire 1 "1 clock $end
    $upscope $end
    $scope module fwUnit $end
     $var wire 5 - io_idRs1 $end
     $var wire 1 ; exHazardA $end
     $var wire 1 E exmemHazardB $end
     $var wire 5 Q io_exRd $end
     $var wire 5 Z io_exmemRd $end
     $var wire 2 f io_forwardB $end
     $var wire 1 "' exmemHazardA $end
     $var wire 2 "* io_forwardA $end
     $var wire 5 "+ io_idRs2 $end
     $var wire 1 "9 exHazardB $end
    $upscope $end
    $scope module ID $end
     $var wire 32 / io_instr $end
     $var wire 5 2 io_rd $end
     $var wire 5 : io_rs1 $end
     $var wire 5 J rs2 $end
     $var wire 7 S funct7 $end
     $var wire 12 i io_immediate $end
     $var wire 8 m io_uop $end
     $var wire 7 ~ opcode $end
     $var wire 3 "! funct3 $end
     $var wire 5 "" rs1 $end
     $var wire 5 "4 rd $end
     $var wire 5 "; io_rs2 $end
     $var wire 12 "? imm $end
    $upscope $end
    $scope module IF $end
     $var wire 1 O clock $end
     $var wire 32 z io_pc $end
     $var wire 32 "- io_pcNew $end
     $var wire 32 "< IMem $end
     $var wire 32 "K io_instr $end
      $scope module IMem $end
        $scope module io_instr_MPORT $end
         $var wire 32 0 data $end
         $var wire 1 1 en $end
         $var wire 1 "$ clk $end
         $var wire 12 "8 addr $end
        $upscope $end
      $upscope $end
    $upscope $end
    $scope module EX $end
     $var wire 32 3 io_operandB $end
     $var wire 32 I io_result $end
     $var wire 8 K io_uop $end
     $var wire 32 V io_operandA $end
     $var wire 12 "G io_immediate $end
    $upscope $end
    $scope module MEM $end
     $var wire 32 4 io_resultO $end
     $var wire 32 U io_result $end
     $var wire 5 ` io_rd $end
     $var wire 5 "# io_rdO $end
    $upscope $end
    $scope module WB $end
     $var wire 32 A io_result $end
     $var wire 32 g io_wbToRegFile_data $end
     $var wire 5 p io_rd $end
     $var wire 32 r io_check_res $end
     $var wire 1 ": io_wbToRegFile_writeEn $end
     $var wire 5 "C io_wbToRegFile_rd $end
    $upscope $end
  $upscope $end
  $scope module core.idBarrier $end
  $upscope $end
  $scope module core.MEM $end
  $upscope $end
  $scope module core.fwUnit $end
  $upscope $end
  $scope module core.regFile $end
  $upscope $end
  $scope module core.WB $end
  $upscope $end
$upscope $end
$enddefinitions $end
$dumpvars
b00000000000000000000000000000000 n
0X
b00000000000000000000000000000000 <
0&
1P
b00000 |
0R
0"1
b00000 J
b00000 5
b00000000000000000000000000000000 r
b00000 -
b00000000000000000000000000000000 "M
b000 "!
b00000 "7
b00000000000000000000000000000000 "2
b00000 ""
0"J
b00000000000000000000000000000000 "I
b00000 @
1e
b00000 #
b00000 "H
b00000 "3
b00000000000000000000000000000000 w
0L
b000000000000 q
b00000000000000000000000000000000 0
b000000000000 "?
b00000 p
0":
b00000000000000000000000000000000 s
b00000 ")
b00000 j
b00000000000000000000000000000000 A
0+
b00000000000000000000000000000000 $
b00000 8
0W
0%
b00000 2
b00000 {
0>
b00000000 ]
b00000 .
b00000000000000000000000000000000 V
0l
0O
b00000000000000000000000000000000 3
b00000000 D
0"E
b00000000000000000000000000000000 "L
1"/
b00000000000000000000000000000000 /
1u
b000000000000 ">
0b
b00000 Z
0E
0"$
0(
b000000000000 "8
b00000000000000000000000000000000 "@
0?
b00000000000000000000000000000000 _
0"=
b00000000000000000000000000000000 "%
b00000 ",
0;
b00000 "C
b00000 ";
b00000 "&
0"9
b00000000000000000000000000000000 U
0T
0"
b00 "*
b000000000000 "G
0k
0N
09
b00000 [
b00000 )
11
0"D
b00000000000000000000000000000000 I
b00000000000000000000000000000000 4
0"'
b00000000000000000000000000000000 "K
b00000 t
b00000 B
b00000 :
b00000000000000000000000000000000 "(
b000000000000 i
b00000 Q
b000000000000 7
b00000000000000000000000000000000 d
b00000000000000000000000000000000 G
b00000000 m
b00000000000000000000000000000000 *
b00000 !
b00000 "F
b00000000000000000000000000000000 "A
b00 f
b00000 M
b00000 "+
b00000000000000000000000000000000 C
b0000000 ~
0Y
b00000000000000000000000000000000 =
b00000 }
b00000 `
16
b00000 "6
b00000 "#
b00000000 '
b00000000000000000000000000000000 g
b00000000000000000000000000000000 "-
0"0
0h
b00000 "4
b00000000000000000000000000000000 a
b0000000 S
b00000000000000000000000000000000 x
b00000000000000000000000000000000 c
b00000 ".
b00000000000000000000000000000000 F
1o
0y
b00000000010000000000000010010011 "<
b00000000000000000000000000000000 z
0\
b00000000000000000000000000000000 H
b00000000000000000000000000000000 "B
0^
0,
0"5
b00000000 K
b00000000000000000000000000000000 v
$end
#0
1":
b11111111 D
b00000000000000000000000000000100 "-
b00000000010000000000000010010011 "K
1"=
b00000000010000000000000010010011 0
1"
1y
b00000000010000000000000010010011 d
b11111111111111111111111111111111 "(
1l
1+
b11111111111111111111111111111111 I
b11111111 m
#1
b11111111111111111111111111111111 4
1"$
b00100 J
1h
b11111111 K
b00100 ";
b000000000100 i
b0010011 ~
b00000000010000000000000010010011 /
b11111111111111111111111111111111 c
b000000000100 ">
b000000000100 "?
b00001 2
b00001 "7
b11111111 ]
b11111111111111111111111111111111 H
1^
b00100 |
b00000000010000000000000010010011 "2
1%
1X
1&
b00000000010000000000000010010011 "I
b00001 "4
b00010000 D
b11111111 '
b11111111111111111111111111111111 =
1(
1T
1"D
1?
b11111111111111111111111111111111 U
1"0
1k
1"1
1W
1O
b00010000 m
#6
0X
0"$
0&
0h
0(
0"=
0T
0"D
0?
0"
0"0
0k
0"1
0O
0^
#11
b00100 "+
1"$
b11111111111111111111111111111111 g
b00000000000000000000000000000100 "B
1h
b00010000 K
b00100 "&
b000000000100 7
b00100 M
b00000000010100000000000100010011 0
b00000000010100000000000100010011 d
b11111111111111111111111111111111 G
b00000000000000000000000000000100 z
b00010000 ]
b11111111111111111111111111111111 "M
b000000000001 "8
1^
b00000000000000000000000000000100 I
b11111111111111111111111111111111 A
1X
1&
b11111111111111111111111111111111 w
b00010000 '
b11111111111111111111111111111111 x
1(
b00000000000000000000000000001000 "-
b00000000010100000000000100010011 "K
b00001 [
b00001 )
b000000000100 q
1T
1"D
1?
b11111111111111111111111111111111 r
b00100 @
1"0
b11111111111111111111111111111111 s
1k
b00000000000000000000000000000100 "(
b00001 "F
1"1
b00100 ")
b000000000100 "G
1O
b11111111111111111111111111111111 n
#16
0T
0"D
0?
0X
0"$
0"0
0&
0k
0h
0"1
0O
0^
0(
#21
b00001 Q
b00000000000000000000000000000100 4
1"$
b00000000000000000000000000001000 "B
b00101 J
1h
b00101 ";
b000000000101 i
b00000000010100000000000100010011 /
b00000000001000001000000110110011 0
b00000000000000000000000000000100 c
b000000000101 ">
b00000000001000001000000110110011 d
b000000000101 "?
b00000000000000000000000000001000 z
b00010 2
b00010 "7
b00000000000000000000000000000100 H
b000000000010 "8
b00001 {
b00001 "#
1^
b00101 |
b00000000010100000000000100010011 "2
b00001 `
1X
b00001 .
1&
b00000000010100000000000100010011 "I
b00010 "4
b00000000000000000000000000000100 =
1(
b00000000000000000000000000001100 "-
b00000000001000001000000110110011 "K
1T
1"D
1?
b00000000000000000000000000000100 U
1"0
1k
b00001 #
1"1
b11111111111111111111111111111111 $
1O
#26
0T
0"D
0?
0X
0"$
0"0
0&
0k
0h
0"1
0O
0^
0(
#31
b00000000000000000000000000000100 n
b00000000000000000000000000001100 "B
1h
b00001 j
b00101 M
b00000000001000011000001000110011 0
b000000000010 ">
b00001 "6
b00000000001000011000001000110011 d
b00000000000000000000000000000100 G
b00011 2
b00000000000000000000000000000100 "M
b000000000011 "8
1^
b00000000000000000000000000000101 I
b00000000000000000000000000000100 A
b00000000001000001000000110110011 "2
1X
1&
b00000000001000001000000110110011 "I
b00000000000000000000000000000100 w
b00011 "4
b00001 Z
1(
b00000000001000011000001000110011 "K
b00001 ".
b000000000101 q
1T
1?
1"0
b00000000000000000000000000000100 s
1k
b00000000000000000000000000000101 "(
b000000000101 "G
b00000001 m
1"$
b00000000000000000000000000000100 g
b00010 J
b00001 "C
b00010 ";
b00101 "&
b000000000010 i
b0110011 ~
b000000000101 7
b00000000001000001000000110110011 /
b000000000010 "?
b00000000000000000000000000001100 z
b00011 "7
b00001 ""
b00010 |
b00001 t
b00000001 D
b00000000000000000000000000000100 x
b00000000000000000000000000010000 "-
b00001 p
b00010 [
b00010 )
1"D
b00000000000000000000000000000100 r
b00101 @
b00010 "F
1"1
b00101 ")
1O
b00001 :
b00001 "H
b00101 "+
#36
0T
0"D
0?
0X
0"$
0"0
0&
0k
0h
0"1
0O
0^
0(
#41
b01 f
b00010 Q
b00000000000000000000000000000100 <
b00000000000000000000000000000101 4
b00000000000000000000000000010000 "B
1h
b00000001 K
1"'
b00010 M
b00000001000000000000001010010011 0
b00011 "6
b00000001000000000000001010010011 d
b00100 2
b000000000100 "8
b00010 {
b00010 "#
1^
b00000000000000000000000000001001 I
b00000000001000011000001000110011 "2
b00010 `
1X
b00000000000000000000000000000100 C
b00010 .
1&
b00000000001000011000001000110011 "I
b00100 "4
b00000000000000000000000000000101 =
1(
b00000001000000000000001010010011 "K
b000000000010 q
1T
1?
1"0
1k
b00000000000000000000000000000100 V
b00000000000000000000000000001001 "(
b00000000000000000000000000000100 $
b000000000010 "G
b10 "*
b00000000000000000000000000000101 3
b00001 ",
1"$
b00001 5
b00010 "&
b000000000010 7
b00000000001000011000001000110011 /
b00000000000000000000000000000101 c
b00000000000000000000000000010000 z
b00100 "7
b00011 ""
b00000001 ]
b00000000000000000000000000000101 H
1"9
b00001 B
b00001 -
b00001 "3
b00000000000000000000000000000100 v
b00000001 '
b00000000000000000000000000010100 "-
b00011 [
b00011 )
1"D
b00000000000000000000000000000101 U
b00010 @
b00001 8
b00010 #
b00011 "F
1"1
b00010 ")
1O
b00011 :
b00000000000000000000000000000101 "@
b00010 "+
#46
0T
0"D
0?
0X
0"$
0"0
0&
0k
0h
0"1
0O
0^
0(
#51
b10 f
b00011 Q
b00000000000000000000000000001001 <
b00000000000000000000000000001001 4
b00000000000000000000000000010100 "B
1h
b00010 j
0"'
b00000000000000000000000000000000 0
b000000010000 ">
b00000 "6
b00000000000000000000000000000000 d
b00000000000000000000000000000101 G
b00101 2
b00000000000000000000000000000101 "M
b000000000101 "8
b00011 {
b00011 "#
1^
b00000000000000000000000000001110 I
b00000000000000000000000000000101 A
b00000001000000000000001010010011 "2
b00011 `
1X
b00000000000000000000000000000000 C
b00011 .
1&
b00000001000000000000001010010011 "I
b00000000000000000000000000000101 w
b00101 "4
b00010 Z
1E
b00000000000000000000000000001001 =
1(
b00000000000000000000000000000000 "K
b00010 ".
1T
1?
1"0
b00000000000000000000000000000101 s
1k
b00000000000000000000000000001001 V
b00000000000000000000000000001110 "(
b01 "*
b00010000 m
1;
b00011 ",
1"$
b00000000000000000000000000000101 g
b10000 J
b00011 5
b00010 "C
b10000 ";
b000000010000 i
b0010011 ~
b00000001000000000000001010010011 /
b00000000000000000000000000001001 c
b000000010000 "?
b00000000000000000000000000010100 z
b00101 "7
b00000 ""
b00000000000000000000000000001001 H
0"9
b10000 |
b00010 t
b00011 B
b00011 -
b00000000000000000000000000000000 v
b00010000 D
b00000000000000000000000000000101 x
b00000000000000000000000000011000 "-
b00010 p
b00100 [
b00100 )
1"D
b00000000000000000000000000000101 r
b00000000000000000000000000001001 U
b00011 8
b00011 #
b00100 "F
1"1
1O
b00000 :
b00010 "H
b00000000000000000000000000000101 n
#56
0T
0"D
0?
0X
0"$
0"0
0&
0k
0h
0"1
0O
0^
0(
#61
b00000000000000000000000000001001 n
b00 f
b00100 Q
b00000000000000000000000000000000 <
b00000000000000000000000000001110 4
b00000000000000000000000000011000 "B
1h
b00010000 K
b00011 j
b10000 M
b000000000000 ">
b00000000000000000000000000001001 G
b00000 2
b00000000000000000000000000001001 "M
b000000000110 "8
b00100 {
b00100 "#
1^
b00000000000000000000000000010000 I
b00000000000000000000000000001001 A
b00000000000000000000000000000000 "2
b00100 `
1X
b00100 .
1&
b00000000000000000000000000000000 "I
b00000000000000000000000000001001 w
b00000 "4
b00011 Z
0E
b00000000000000000000000000001110 =
1(
b00011 ".
b000000010000 q
1T
1?
1"0
b00000000000000000000000000001001 s
1k
b00000000000000000000000000000000 V
b00000000000000000000000000010000 "(
b00000000000000000000000000000101 $
b000000010000 "G
b00 "*
b11111111 m
0;
b00000000000000000000000000000000 3
b00000 ",
1"$
b00000000000000000000000000001001 g
b00000 J
b00000 5
b00011 "C
b00000 ";
b10000 "&
b000000000000 i
b0000000 ~
b000000010000 7
b00000000000000000000000000000000 /
b00000000000000000000000000001110 c
b000000000000 "?
b00000000000000000000000000011000 z
b00000 "7
b00010000 ]
b00000000000000000000000000001110 H
b00000 |
b00011 t
b00000 B
b00000 -
b00010 "3
b11111111 D
b00010000 '
b00000000000000000000000000001001 x
b00000000000000000000000000011100 "-
b00011 p
b00101 [
b00101 )
1"D
b00000000000000000000000000001001 r
b00000000000000000000000000001110 U
b10000 @
b00000 8
b00100 #
b00101 "F
1"1
b10000 ")
1O
b00011 "H
b00000000000000000000000000000000 "@
b10000 "+
#66
0T
0"D
0?
0X
0"$
0"0
0&
0k
0h
0"1
0O
0^
0(
#71
b00000000000000000000000000001110 n
b00101 Q
b00000000000000000000000000010000 4
b00000000000000000000000000011100 "B
1h
b11111111 K
b00100 j
b00000 M
b00000000000000000000000000001110 G
b00000000000000000000000000001110 "M
b000000000111 "8
b00101 {
b00101 "#
1^
b11111111111111111111111111111111 I
b00000000000000000000000000001110 A
b00101 `
1X
b00101 .
1&
b00000000000000000000000000001110 w
b00100 Z
b00000000000000000000000000010000 =
1(
b00100 ".
b000000000000 q
1T
1?
1"0
b00000000000000000000000000001110 s
1k
b11111111111111111111111111111111 "(
b00000000000000000000000000001001 $
b000000000000 "G
1"$
b00000000000000000000000000001110 g
b00100 "C
b00000 "&
b000000000000 7
b00000000000000000000000000010000 c
b00000000000000000000000000011100 z
b11111111 ]
b00000000000000000000000000010000 H
b00100 t
b00011 "3
b11111111 '
b00000000000000000000000000001110 x
b00000000000000000000000000100000 "-
b00100 p
b00000 [
b00000 )
1"D
b00000000000000000000000000001110 r
b00000000000000000000000000010000 U
b00000 @
b00101 #
b00000 "F
1"1
b00000 ")
1O
b00100 "H
b00000 "+
#76
0T
0"D
0?
0X
0"$
0"0
0&
0k
0h
0"1
0O
0^
0(
#81
b00000 Q
b11111111111111111111111111111111 4
1"$
b00000000000000000000000000010000 g
b00000000000000000000000000100000 "B
1h
b00101 "C
b00101 j
b11111111111111111111111111111111 c
b00000000000000000000000000010000 G
b00000000000000000000000000100000 z
b00000000000000000000000000010000 "M
b000000001000 "8
b00000 {
b00000 "#
b11111111111111111111111111111111 H
1^
b00000000000000000000000000010000 A
b00101 t
b00000 `
1X
b00100 "3
b00000 .
1&
b00000000000000000000000000010000 w
b00101 Z
b00000000000000000000000000010000 x
b11111111111111111111111111111111 =
1(
b00000000000000000000000000100100 "-
b00101 p
b00101 ".
1T
1"D
1?
b00000000000000000000000000010000 r
b11111111111111111111111111111111 U
1"0
b00000000000000000000000000010000 s
1k
b00000 #
1"1
b00000000000000000000000000001110 $
1O
b00101 "H
b00000000000000000000000000010000 n
