02_single-cycle_RISC-V_core/test_run_dir/SimpleRV32I_Tester_should_work/SimpleRV32I.vcd
$date
2024-03-28T13:11+0000
$end
$version
0.2
$end
$comment

$end
$timescale 1ns  $end
$scope module SimpleRV32I $end
 $var wire 1 9 core $end
 $var wire 1 A clock $end
 $var wire 32 M io_result $end
 $var wire 1 U reset $end
  $scope module core $end
   $var wire 1 ! reset $end
   $var wire 1 " isOR $end
   $var wire 1 $ isXOR $end
   $var wire 1 % isSLT $end
   $var wire 1 & isADDI $end
   $var wire 32 ( IMem $end
   $var wire 32 ) aluResult $end
   $var wire 32 , instr $end
   $var wire 5 - rs2 $end
   $var wire 7 0 funct7 $end
   $var wire 1 4 isSRA $end
   $var wire 5 8 rs1 $end
   $var wire 32 ; regFile $end
   $var wire 1 < clock $end
   $var wire 7 @ opcode $end
   $var wire 12 B imm $end
   $var wire 1 C isADD $end
   $var wire 32 D io_check_res $end
   $var wire 32 J writeBackData $end
   $var wire 3 L funct3 $end
   $var wire 1 N isSRL $end
   $var wire 1 T isSUB $end
   $var wire 1 X isAND $end
   $var wire 1 Y isSLL $end
   $var wire 32 Z pc $end
   $var wire 5 ] rd $end
    $scope module regFile $end
     $var wire 32 G MPORT $end
     $var wire 32 P MPORT_1 $end
      $scope module operandA $end
       $var wire 5 # addr $end
       $var wire 32 / data $end
       $var wire 1 O clk $end
       $var wire 1 R en $end
      $upscope $end
      $scope module MPORT $end
       $var wire 5 ' pipeline_addr_0 $end
       $var wire 1 . mask $end
       $var wire 1 5 pipeline_valid_0 $end
       $var wire 1 7 en $end
       $var wire 5 : addr $end
       $var wire 1 = clk $end
       $var wire 32 ? pipeline_data_0 $end
       $var wire 1 H valid $end
       $var wire 32 Q data $end
      $upscope $end
      $scope module MPORT_1 $end
       $var wire 1 * en $end
       $var wire 1 1 valid $end
       $var wire 1 6 mask $end
       $var wire 5 F addr $end
       $var wire 5 I pipeline_addr_0 $end
       $var wire 32 W pipeline_data_0 $end
       $var wire 1 [ pipeline_valid_0 $end
       $var wire 32 \ data $end
       $var wire 1 ^ clk $end
      $upscope $end
      $scope module operandB $end
       $var wire 5 + addr $end
       $var wire 1 3 en $end
       $var wire 32 > data $end
       $var wire 1 V clk $end
      $upscope $end
    $upscope $end
    $scope module IMem $end
      $scope module instr_MPORT $end
       $var wire 12 2 addr $end
       $var wire 1 E en $end
       $var wire 32 K data $end
       $var wire 1 S clk $end
      $upscope $end
    $upscope $end
  $upscope $end
$upscope $end
$enddefinitions $end
$dumpvars
0X
0C
b00000000000000000000000000000000 D
0&
13
0=
b00000000000000000000000000000000 >
b0000000 0
1R
b00000 -
0T
0"
0V
17
0N
09
b00000 F
b00000000000000000000000000000000 Q
b00000 ]
b00000 +
b00000 #
b00000000000000000000000000000000 K
05
b00000 :
b00000000000000000000000000000000 M
b00000 '
b00000000000000000000000000000000 \
b00000000000000000000000000000000 G
01
0[
0H
b00000000000000000000000000000000 ,
b000 L
b00000 8
b00000000000000000000000000000000 ;
0%
b00000000000000000000000000000000 Z
0Y
0<
b00000 I
0S
b00000000000000000000000000000000 ?
0!
16
0U
1.
b0000000 @
1E
b00000000000000000000000000000000 P
0O
b000000000000 B
1*
04
b00000000000000000000000000000000 J
b00000000000000000000000000000000 /
b00000000000000000000000000000000 )
b000000000000 2
0^
b00000000000000000000000000000000 W
0A
0$
b00000000000000000000000000010011 (
$end
#0
1!
1U
11
b0010011 @
1&
b00000000000000000000000000010011 K
1H
b00000000000000000000000000010011 ,
#1
1<
15
1V
1S
1=
1^
1[
1O
1A
#6
0!
0<
0U
0V
0S
0=
0^
0O
0A
#11
b000000000100 B
b00100 -
1<
b00000000000000000000000000000100 J
b00000000000000000000000000000100 D
1S
b00000000010000000000000010010011 K
b00000000000000000000000000000100 Z
1=
b00000000000000000000000000000100 M
b00000000000000000000000000000100 \
b00000000000000000000000000000100 )
b00001 F
1V
b000000000001 2
b00001 ]
1O
1^
b00100 +
1A
b00000000010000000000000010010011 ,
#16
0<
0V
0S
0=
0^
0O
0A
#21
b000000000101 B
b00101 -
1<
b00000000000000000000000000000101 J
b00000000000000000000000000000101 D
1S
b00000000010100000000000100010011 K
b00000000000000000000000000001000 Z
1=
b00000000000000000000000000000101 M
b00000000000000000000000000000101 \
b00000000000000000000000000000101 )
b00010 F
1V
b000000000010 2
b00010 ]
b00000000000000000000000000000100 W
1O
1^
b00001 I
b00101 +
1A
b00000000010100000000000100010011 ,
#26
0<
0V
0S
0=
0^
0O
0A
#31
1<
b00000000000000000000000000001001 J
1S
b00000000001000001000000110110011 K
b00000000000000000000000000000100 /
b00000000000000000000000000001001 M
b00011 F
b000000000011 2
b00011 ]
b00010 +
1^
b00010 I
1A
b00000000001000001000000110110011 ,
b000000000010 B
b00010 -
1C
0&
b00000000000000000000000000001001 D
b00000000000000000000000000001100 Z
1=
b00000000000000000000000000000101 >
b00000000000000000000000000001001 )
b00000000000000000000000000001001 \
b0110011 @
b00001 8
b00001 #
1V
b00000000000000000000000000000101 W
1O
#36
0<
0V
0S
0=
0^
0O
0A
#41
1<
b00000000000000000000000000000001 J
1S
b01000000000100010000001000110011 K
b00000000000000000000000000000101 /
b00000000000000000000000000000001 M
b0100000 0
b00100 F
b000000000100 2
b00100 ]
b00001 +
1^
b00011 I
1A
b01000000000100010000001000110011 ,
b010000000001 B
b00001 -
0C
b00000000000000000000000000000001 D
b00000000000000000000000000010000 Z
1=
b00000000000000000000000000000100 >
b00000000000000000000000000000001 )
b00000000000000000000000000000001 \
1T
b00010 8
b00010 #
1V
b00000000000000000000000000001001 W
1O
#46
0<
0V
0S
0=
0^
0O
0A
#51
1<
b00000000000000000000000000000100 J
1S
b00000000001000001111001010110011 K
b111 L
b00000000000000000000000000000100 /
b00000000000000000000000000000100 M
b0000000 0
b00101 F
b000000000101 2
b00101 ]
b00010 +
1^
b00100 I
1A
b00000000001000001111001010110011 ,
b000000000010 B
b00010 -
1X
b00000000000000000000000000000100 D
b00000000000000000000000000010100 Z
1=
b00000000000000000000000000000101 >
b00000000000000000000000000000100 )
b00000000000000000000000000000100 \
0T
b00001 8
b00001 #
1V
b00000000000000000000000000000001 W
1O
#56
0<
0V
0S
0=
0^
0O
0A
#61
1<
0X
b00000000000000000000000000000101 J
b00000000000000000000000000000101 D
1S
b00000000001000001110001100110011 K
b00000000000000000000000000011000 Z
1=
b110 L
b00000000000000000000000000000101 M
b00000000000000000000000000000101 \
b00000000000000000000000000000101 )
b00110 F
1"
1V
b000000000110 2
b00110 ]
b00000000000000000000000000000100 W
1O
1^
b00101 I
1A
b00000000001000001110001100110011 ,
#66
0<
0V
0S
0=
0^
0O
0A
#71
1<
b00000000000000000000000010010000 J
1S
b00000000010100011001001110110011 K
b001 L
b00000000000000000000000000001001 /
b00000000000000000000000010010000 M
b00111 F
b000000000111 2
b00111 ]
b00101 +
1^
b00110 I
1A
b00000000010100011001001110110011 ,
b000000000101 B
b00101 -
1Y
b00000000000000000000000010010000 D
b00000000000000000000000000011100 Z
1=
b00000000000000000000000000000100 >
b00000000000000000000000010010000 )
b00000000000000000000000010010000 \
0"
b00011 8
b00011 #
1V
b00000000000000000000000000000101 W
1O
#76
0<
0V
0S
0=
0^
0O
0A
#81
1<
b00000000000000000000000000000100 J
1S
b00000000001000111101001110110011 K
b101 L
b00000000000000000000000010010000 /
b00000000000000000000000000000100 M
1N
b000000001000 2
b00010 +
1^
b00111 I
1A
b00000000001000111101001110110011 ,
b000000000010 B
b00010 -
0Y
b00000000000000000000000000000100 D
b00000000000000000000000000100000 Z
1=
b00000000000000000000000000000101 >
b00000000000000000000000000000100 )
b00000000000000000000000000000100 \
b00111 8
b00111 #
1V
b00000000000000000000000010010000 W
1O
#86
0<
0V
0S
0=
0^
0O
0A
#91
1<
b00000000000000000000000000000000 J
b00000000000000000000000000000000 D
1S
b00000000001000110100010100110011 K
b00000000000000000000000000100100 Z
1=
b100 L
b00000000000000000000000000000101 /
b00000000000000000000000000000000 M
b00000000000000000000000000000000 \
b00000000000000000000000000000000 )
0N
b01010 F
b00110 8
b00110 #
1V
b000000001001 2
b01010 ]
1$
b00000000000000000000000000000100 W
1O
1^
1A
b00000000001000110100010100110011 ,
#96
0<
0V
0S
0=
0^
0O
0A
#101
b000000000011 B
b00011 -
1<
b00000000000000000000000000001001 J
b00000000000000000000000000001001 D
1S
b00000000001101010100010100110011 K
b00000000000000000000000000101000 Z
1=
b00000000000000000000000000000000 /
b00000000000000000000000000001001 >
b00000000000000000000000000001001 M
b00000000000000000000000000001001 \
b00000000000000000000000000001001 )
b01010 8
b01010 #
1V
b000000001010 2
b00000000000000000000000000000000 W
1O
1^
b01010 I
b00011 +
1A
b00000000001101010100010100110011 ,
#106
0<
0V
0S
0=
0^
0O
0A
#111
1<
b00000000000000000000000000000001 J
1S
b00000000000100000000000010010011 K
b000 L
b00000000000000000000000000000001 M
b00001 F
b000000001011 2
b00001 ]
b00001 +
1^
1A
b00000000000100000000000010010011 ,
b000000000001 B
b00001 -
1&
b00000000000000000000000000000001 D
b00000000000000000000000000101100 Z
1=
b00000000000000000000000000000100 >
b00000000000000000000000000000001 )
b00000000000000000000000000000001 \
b0010011 @
b00000 8
b00000 #
1V
0$
b00000000000000000000000000001001 W
1O
#116
0<
0V
0S
0=
0^
0O
0A
#121
b000000011111 B
b11111 -
1<
b00000000000000000000000000011111 J
b00000000000000000000000000011111 D
1S
b00000001111100000000000100010011 K
b00000000000000000000000000110000 Z
1=
b00000000000000000000000000000000 >
b00000000000000000000000000011111 M
b00000000000000000000000000011111 \
b00000000000000000000000000011111 )
b00010 F
1V
b000000001100 2
b00010 ]
b00000000000000000000000000000001 W
1O
1^
b00001 I
b11111 +
1A
b00000001111100000000000100010011 ,
#126
0<
0V
0S
0=
0^
0O
0A
#131
1<
b10000000000000000000000000000000 J
1S
b00000000001000001001000010110011 K
b001 L
b00000000000000000000000000000001 /
b10000000000000000000000000000000 M
b00001 F
b000000001101 2
b00001 ]
b00010 +
1^
b00010 I
1A
b00000000001000001001000010110011 ,
b000000000010 B
b00010 -
0&
1Y
b10000000000000000000000000000000 D
b00000000000000000000000000110100 Z
1=
b00000000000000000000000000011111 >
b10000000000000000000000000000000 )
b10000000000000000000000000000000 \
b0110011 @
b00001 8
b00001 #
1V
b00000000000000000000000000011111 W
1O
#136
0<
0V
0S
0=
0^
0O
0A
#141
b010000000101 B
b00101 -
1<
14
b11111000000000000000000000000000 J
0Y
b11111000000000000000000000000000 D
1S
b01000000010100001101000010110011 K
b00000000000000000000000000111000 Z
1=
b101 L
b10000000000000000000000000000000 /
b00000000000000000000000000000100 >
b11111000000000000000000000000000 M
b11111000000000000000000000000000 \
b11111000000000000000000000000000 )
b0100000 0
1V
b000000001110 2
b10000000000000000000000000000000 W
1O
1^
b00001 I
b00101 +
1A
b01000000010100001101000010110011 ,
#146
0<
0V
0S
0=
0^
0O
0A
#151
1<
04
b00000000000000000000001010011010 J
1S
b00000000000000000000000000000000 K
b000 L
b00000000000000000000000000000000 /
b00000000000000000000001010011010 M
b0000000 0
b00000 F
b000000001111 2
b00000 ]
b00000 +
1^
1A
b00000000000000000000000000000000 ,
b000000000000 B
b00000 -
b00000000000000000000001010011010 D
b00000000000000000000000000111100 Z
1=
b00000000000000000000000000000000 >
b00000000000000000000001010011010 )
b00000000000000000000001010011010 \
b0000000 @
b00000 8
b00000 #
1V
b11111000000000000000000000000000 W
1O
